<?xml version="1.0" encoding="UTF-8"?>
<svg width="201px" height="200px" viewBox="0 0 201 200" version="1.1" xmlns="http://www.w3.org/2000/svg" xmlns:xlink="http://www.w3.org/1999/xlink" xmlns:sketch="http://www.bohemiancoding.com/sketch/ns">
    <!-- Generator: Sketch 3.3.3 (12072) - http://www.bohemiancoding.com/sketch -->
    <title>001-facebook</title>
    <desc>Created with Sketch.</desc>
    <defs></defs>
    <g id="Page-1" stroke="none" stroke-width="1" fill="none" fill-rule="evenodd" sketch:type="MSPage">
        <g id="001-facebook" sketch:type="MSLayerGroup" fill="#FFFFFF">
            <path d="M100.5,0 C60.1,0 23.6,24.4 8.1,61.7 C-7.4,99.1 1.2,142.1 29.8,170.7 C58.4,199.3 101.4,207.9 138.8,192.4 C176.2,176.9 200.5,140.5 200.5,100 C200.5,44.8 155.7,0 100.5,0 L100.5,0 L100.5,0 Z M125.8,90.5 L124.1,104.4 C124,105.7 122.8,106.8 121.5,106.7 L107,106.7 L107,148 C107,149 106.2,149.9 105.2,149.9 L90.5,149.9 C89.5,149.9 88.6,149 88.7,148 L88.8,106.7 L77.8,106.7 C76.3,106.7 75.2,105.5 75.2,104.1 L75.2,90.2 C75.2,88.7 76.4,87.6 77.8,87.6 L88.7,87.6 L88.7,74.1 C88.7,58.5 98,50 111.6,50 L122.7,50 C124.2,50 125.3,51.2 125.3,52.6 L125.3,64.3 C125.3,65.8 124.1,66.9 122.7,66.9 L115.9,66.9 C108.5,67 107.1,70.6 107.1,75.8 L107.1,87.4 L123.3,87.4 C124.8,87.6 126,89 125.8,90.5 L125.8,90.5 L125.8,90.5 Z" id="Shape" sketch:type="MSShapeGroup"></path>
        </g>
    </g>
</svg>