<?xml version="1.0" encoding="UTF-8"?>
<svg width="194px" height="194px" viewBox="0 0 194 194" version="1.1" xmlns="http://www.w3.org/2000/svg" xmlns:xlink="http://www.w3.org/1999/xlink" xmlns:sketch="http://www.bohemiancoding.com/sketch/ns">
    <!-- Generator: Sketch 3.3.3 (12072) - http://www.bohemiancoding.com/sketch -->
    <title>008-linkedin</title>
    <desc>Created with Sketch.</desc>
    <defs></defs>
    <g id="Page-1" stroke="none" stroke-width="1" fill="none" fill-rule="evenodd" sketch:type="MSPage">
        <g id="008-linkedin" sketch:type="MSLayerGroup" fill="#FFFFFF">
            <path d="M97,0 C57.8,0 22.4,23.6 7.4,59.9 C-7.6,96.1 0.7,137.9 28.4,165.6 C56.1,193.3 97.9,201.6 134.1,186.6 C170.3,171.6 194,136.2 194,97 C194,43.4 150.6,0 97,0 L97,0 L97,0 Z M72.3,142.2 C72.3,144 70.8,145.5 69,145.5 L55.1,145.5 C54.2,145.5 53.4,145.2 52.8,144.5 C52.2,143.9 51.8,143 51.8,142.2 L51.8,83.8 C51.8,82 53.3,80.5 55.1,80.5 L69,80.5 C69.9,80.5 70.7,80.8 71.3,81.5 C71.9,82.1 72.3,82.9 72.3,83.8 L72.3,142.2 L72.3,142.2 Z M62.1,75 C56.7,75 51.9,71.8 49.8,66.9 C47.7,62 48.9,56.2 52.6,52.4 C56.4,48.6 62.1,47.5 67,49.5 C72,51.5 75.2,56.4 75.2,61.7 C75.2,65.2 73.8,68.6 71.3,71.1 C69,73.6 65.6,75 62.1,75 L62.1,75 L62.1,75 Z M145.2,142.5 C145.2,143.3 144.9,144.1 144.3,144.6 C143.7,145.2 143,145.5 142.2,145.5 L127.2,145.5 C125.5,145.5 124.2,144.2 124.2,142.5 L124.2,115.1 C124.2,111 125.4,97.2 113.5,97.2 C104.3,97.2 102.4,106.7 102,110.9 L102,142.5 C102,144.1 100.6,145.4 99,145.4 L84.6,145.4 C83.8,145.4 83,145.1 82.5,144.5 C81.9,143.9 81.6,143.2 81.6,142.4 L81.6,83.4 C81.6,82.6 81.9,81.8 82.5,81.3 C83.1,80.7 83.8,80.4 84.6,80.4 L99,80.4 C99.8,80.4 100.6,80.7 101.2,81.3 C101.8,81.9 102.1,82.6 102.1,83.5 L102.1,88.6 C105.5,83.5 110.6,79.5 121.4,79.5 C145.4,79.5 145.2,101.9 145.2,114.2 L145.2,142.5 L145.2,142.5 Z" id="Shape" sketch:type="MSShapeGroup"></path>
        </g>
    </g>
</svg>