<?xml version="1.0" encoding="UTF-8"?>
<svg width="176px" height="29px" viewBox="0 0 176 29" version="1.1" xmlns="http://www.w3.org/2000/svg" xmlns:xlink="http://www.w3.org/1999/xlink" xmlns:sketch="http://www.bohemiancoding.com/sketch/ns">
    <!-- Generator: Sketch 3.3.3 (12072) - http://www.bohemiancoding.com/sketch -->
    <title>vmware-logo-6472</title>
    <desc>Created with Sketch.</desc>
    <defs></defs>
    <g id="Page-1" stroke="none" stroke-width="1" fill="none" fill-rule="evenodd" sketch:type="MSPage">
        <g id="vmware-logo-6472" sketch:type="MSLayerGroup" fill="#000000">
            <path d="M14.1,19 C15.6,15.5 17,12.1 18.5,8.7 C18.9,7.7 19.4,6.7 19.9,5.7 C22.7,0.1 30,-0.9 34.4,3.7 C34.6,3.9 34.8,4.1 35,4.3 C37.4,2.5 39.9,0.9 43,0.9 C46.1,0.9 48.8,1.8 50.7,4.1 C52.5,3.2 54.1,2 56,1.4 C61,-0.3 66.2,1.9 68.1,6.4 C68.5,7.3 68.7,8.4 68.8,9.4 C68.9,14.4 68.8,19.4 68.8,24.4 C68.8,27 67.2,28.6 64.7,28.6 C62.5,28.6 61,26.9 61,24.4 L61,11.7 C61,9.8 60.1,8.4 58.5,7.9 C55.8,6.9 53,8.5 52.9,11.4 C52.8,15.6 52.8,19.8 52.8,24 C52.8,24.5 52.8,25 52.7,25.5 C52.3,27.6 50.9,28.7 48.7,28.7 C46.8,28.7 45.4,27.4 45.1,25.4 C45,24.9 45,24.4 45,23.9 L45,11.8 C45,10.2 44.5,8.9 43,8.2 C41.4,7.4 39.9,7.5 38.5,8.5 C37.2,9.4 36.9,10.7 36.9,12.1 L36.9,24.5 C36.9,26.5 35.9,28 34.3,28.5 C31.5,29.4 29.1,27.6 29,24.4 L29,10 L29,9.2 C29,8.5 28.9,7.9 28.1,7.7 C27.3,7.5 26.9,8.1 26.7,8.7 C26.4,9.3 26.1,9.9 25.9,10.6 C23.8,15.1 21.7,19.6 19.6,24.2 C19.3,24.8 18.9,25.5 18.6,26.1 C16.7,29.6 11.7,29.6 9.9,26.1 C8.7,23.8 7.6,21.4 6.5,19.1 C4.5,14.9 2.6,10.7 0.7,6.4 C-0.3,4.2 0.4,2.1 2.5,1.2 C4.6,0.3 6.7,1.2 7.6,3.4 C9.7,8.4 11.9,13.5 14,18.5 C13.9,18.6 14,18.8 14.1,19 L14.1,19 Z" id="Shape" sketch:type="MSShapeGroup"></path>
            <path d="M81,22.1 C82.9,16.7 84.6,11.6 86.4,6.5 C86.8,5.4 87.2,4.3 87.6,3.2 C88,1.9 88.6,1.5 89.7,1.5 C90.9,1.5 91.5,1.9 92,3.2 C94,9 96,14.9 98,20.7 C98.1,21.1 98.3,21.5 98.5,22.1 C99.4,19.5 100.3,17 101.1,14.6 C102.4,10.8 103.8,7 105.1,3.2 C105.4,2.4 105.7,1.8 106.6,1.5 C108.1,1.1 109.4,2.4 108.9,3.9 C108.5,5.2 108,6.4 107.6,7.7 C105.4,13.9 103.1,20.1 100.9,26.2 C100.8,26.5 100.7,26.8 100.6,27 C100.1,27.9 99.4,28.5 98.4,28.4 C97.4,28.3 96.7,27.8 96.4,26.8 C95.6,24.5 94.8,22.1 93.9,19.8 C92.6,16 91.3,12.2 90,8.5 C89.9,8.4 89.9,8.2 89.7,8 C88.6,11 87.6,13.9 86.6,16.7 C85.4,20 84.3,23.3 83.1,26.5 C82.6,27.8 82,28.4 80.9,28.4 C79.8,28.4 79,27.8 78.5,26.4 C76.5,20.8 74.5,15.2 72.4,9.6 C71.8,7.8 71.1,6.1 70.5,4.3 C70,2.9 70.4,1.9 71.6,1.5 C72.8,1.1 73.8,1.6 74.3,3 C76.4,8.9 78.4,14.8 80.4,20.7 C80.6,21.1 80.7,21.5 81,22.1 L81,22.1 Z" id="Shape" sketch:type="MSShapeGroup"></path>
            <path d="M128.3,12.8 C128.8,8.3 126.2,5.3 121.8,5 C119.3,4.8 116.9,5 114.6,6.1 C113.5,6.6 112.6,6.2 112.2,5.3 C111.7,4.4 112,3.4 113,3 C117.5,1.1 122.1,0.8 126.7,2.5 C130.1,3.8 131.7,6.5 132.1,10 C132.3,12.1 132.3,14.3 132.3,16.4 L132.3,25.8 C132.3,26.2 132.3,26.5 132.2,26.9 C132,27.9 131.2,28.5 130.1,28.4 C129.1,28.3 128.5,27.6 128.4,26.6 L128.4,25.5 L128.4,24.2 C127.8,24.8 127.4,25.3 126.9,25.7 C123.2,28.9 117.4,29.5 113.1,27.1 C110.4,25.6 109.1,23.3 109.1,20.2 C109.1,17 110.6,14.6 113.5,13.2 C116.6,11.7 119.9,11.6 123.2,11.9 C124.9,12.1 126.6,12.5 128.3,12.8 L128.3,12.8 Z M120.8,14.5 C119.3,14.9 117.5,15.1 115.9,15.7 C114,16.4 113,18 113,20 C113,22 113.9,23.5 115.6,24.5 C117.5,25.6 119.6,25.7 121.7,25.3 C124.2,24.8 126.4,23.6 127.7,21.3 C128.6,19.7 128.4,18 128.4,16.3 C128.4,16.1 128,15.8 127.7,15.7 C125.5,15.3 123.3,14.9 120.8,14.5 L120.8,14.5 Z" id="Shape" sketch:type="MSShapeGroup"></path>
            <path d="M155.7,16.4 C155.5,19.4 157.8,23.1 160.8,24.3 C164.7,26 168.3,25.2 171.6,22.6 C171.8,22.5 171.9,22.3 172.1,22.2 C172.9,21.6 173.8,21.6 174.5,22.3 C175.1,23 175.1,23.9 174.4,24.7 C172.7,26.4 170.6,27.7 168.2,28.3 C160.2,30.2 153,25.6 151.8,17.4 C151,11.7 152.5,6.7 157.5,3.4 C163.1,-0.5 173.1,0.9 175.6,10.8 C175.9,12 176,13.2 176,14.4 C176.1,15.9 175.4,16.5 173.9,16.5 L162.1,16.5 C160,16.4 157.8,16.4 155.7,16.4 L155.7,16.4 Z M172.2,13.5 C171.8,10.1 170.7,7.2 167.6,5.6 C164.8,4.2 161.9,4.4 159.4,6.3 C157,8.1 156,10.6 155.6,13.5 L172.2,13.5 L172.2,13.5 Z" id="Shape" sketch:type="MSShapeGroup"></path>
            <path d="M140.9,7.6 C141.2,7.1 141.4,6.8 141.5,6.6 C143.2,4 145.5,2.3 148.5,1.6 C148.9,1.5 149.4,1.5 149.9,1.5 C151.1,1.5 151.8,2.1 151.9,3.2 C152,4.4 151.5,5.2 150.3,5.5 C149.3,5.7 148.3,5.9 147.4,6.3 C143.5,7.9 141.5,11 141.2,15 C140.9,18.7 141,22.5 141,26.2 C141,27.4 140.5,28.1 139.6,28.4 C138.2,28.8 137.1,27.8 137.1,26.3 L137.1,7.8 L137.1,3.7 C137.1,2.4 137.9,1.6 139,1.6 C140.2,1.6 141,2.4 141,3.7 C140.9,4.8 140.9,6 140.9,7.6 L140.9,7.6 Z" id="Shape" sketch:type="MSShapeGroup"></path>
        </g>
    </g>
</svg>